GFORTRAN module version '0' created from problem.f90 on Thu Aug  9 16:23:25 2018
MD5:b8c5941d105af6fc975cf9299aede235 -- If you edit this, you'll get what you deserve.

(() () () () () () () () () () () () () () () () () () () () () () () ()
() () ())

()

()

()

()

(2 'c' 'utility' 'c' 1 ((PARAMETER UNKNOWN-INTENT UNKNOWN-PROC UNKNOWN
IMPLICIT-SAVE) (INTEGER 4 0 0 INTEGER ()) 0 0 () (CONSTANT (INTEGER 4 0
0 INTEGER ()) 0 '2') () 0 () () () 0 0)
3 'check_validity' 'utility' 'check_validity' 1 ((PROCEDURE
UNKNOWN-INTENT MODULE-PROC DECL UNKNOWN SUBROUTINE) (UNKNOWN 0 0 0
UNKNOWN ()) 4 0 (5 6 7) () 0 () () () 0 0)
8 'count_search' 'utility' 'count_search' 1 ((VARIABLE UNKNOWN-INTENT
UNKNOWN-PROC UNKNOWN IMPLICIT-SAVE) (INTEGER 4 0 0 INTEGER ()) 0 0 () ()
0 () () () 0 0)
9 'get_col_sum' 'utility' 'get_col_sum' 1 ((PROCEDURE UNKNOWN-INTENT
MODULE-PROC DECL UNKNOWN SUBROUTINE) (UNKNOWN 0 0 0 UNKNOWN ()) 10 0 (
11 12 13) () 0 () () () 0 0)
14 'get_element' 'utility' 'get_element' 1 ((PROCEDURE UNKNOWN-INTENT
MODULE-PROC DECL UNKNOWN SUBROUTINE) (UNKNOWN 0 0 0 UNKNOWN ()) 15 0 (
16 17 18) () 0 () () () 0 0)
19 'h' 'utility' 'h' 1 ((PARAMETER UNKNOWN-INTENT UNKNOWN-PROC UNKNOWN
IMPLICIT-SAVE) (INTEGER 4 0 0 INTEGER ()) 0 0 () (CONSTANT (INTEGER 4 0
0 INTEGER ()) 0 '1') () 0 () () () 0 0)
20 'max_num_all_atoms' 'utility' 'max_num_all_atoms' 1 ((PARAMETER
UNKNOWN-INTENT UNKNOWN-PROC UNKNOWN IMPLICIT-SAVE) (INTEGER 4 0 0
INTEGER ()) 0 0 () (CONSTANT (INTEGER 4 0 0 INTEGER ()) 0 '12') () 0 ()
() () 0 0)
21 'max_num_elements' 'utility' 'max_num_elements' 1 ((PARAMETER
UNKNOWN-INTENT UNKNOWN-PROC UNKNOWN IMPLICIT-SAVE) (INTEGER 4 0 0
INTEGER ()) 0 0 () (CONSTANT (INTEGER 4 0 0 INTEGER ()) 0 '4') () 0 () ()
() 0 0)
22 'molgraph' 'utility' 'molgraph' 1 ((DERIVED UNKNOWN-INTENT
UNKNOWN-PROC UNKNOWN UNKNOWN) (UNKNOWN 0 0 0 UNKNOWN ()) 0 0 () () 0 ((
23 'total_num_atoms' (INTEGER 4 0 0 INTEGER ()) () (UNKNOWN-FL
UNKNOWN-INTENT UNKNOWN-PROC UNKNOWN UNKNOWN) UNKNOWN-ACCESS ()) (24
'num_atoms' (INTEGER 4 0 0 INTEGER ()) (1 EXPLICIT (CONSTANT (INTEGER 4
0 0 INTEGER ()) 0 '1') (CONSTANT (INTEGER 4 0 0 INTEGER ()) 0 '4')) (
UNKNOWN-FL UNKNOWN-INTENT UNKNOWN-PROC UNKNOWN UNKNOWN DIMENSION)
UNKNOWN-ACCESS ()) (25 'bo_matrix' (INTEGER 4 0 0 INTEGER ()) (1
EXPLICIT (CONSTANT (INTEGER 4 0 0 INTEGER ()) 0 '1') (CONSTANT (INTEGER
4 0 0 INTEGER ()) 0 '144')) (UNKNOWN-FL UNKNOWN-INTENT UNKNOWN-PROC
UNKNOWN UNKNOWN DIMENSION) UNKNOWN-ACCESS ())) PUBLIC (() ()) () 0 0)
26 'n' 'utility' 'n' 1 ((PARAMETER UNKNOWN-INTENT UNKNOWN-PROC UNKNOWN
IMPLICIT-SAVE) (INTEGER 4 0 0 INTEGER ()) 0 0 () (CONSTANT (INTEGER 4 0
0 INTEGER ()) 0 '3') () 0 () () () 0 0)
27 'num_chemical_bond' 'utility' 'num_chemical_bond' 1 ((PARAMETER
UNKNOWN-INTENT UNKNOWN-PROC UNKNOWN IMPLICIT-SAVE DIMENSION) (INTEGER 4
0 0 INTEGER ()) 0 0 () (ARRAY (INTEGER 4 0 0 INTEGER ()) 1 (((CONSTANT (
INTEGER 4 0 0 INTEGER ()) 0 '1') ()) ((CONSTANT (INTEGER 4 0 0 INTEGER ())
0 '4') ()) ((CONSTANT (INTEGER 4 0 0 INTEGER ()) 0 '3') ()) ((CONSTANT (
INTEGER 4 0 0 INTEGER ()) 0 '2') ())) ('4')) (1 EXPLICIT (CONSTANT (
INTEGER 4 0 0 INTEGER ()) 0 '1') (CONSTANT (INTEGER 4 0 0 INTEGER ()) 0
'4')) 0 () () () 0 0)
28 'o' 'utility' 'o' 1 ((PARAMETER UNKNOWN-INTENT UNKNOWN-PROC UNKNOWN
IMPLICIT-SAVE) (INTEGER 4 0 0 INTEGER ()) 0 0 () (CONSTANT (INTEGER 4 0
0 INTEGER ()) 0 '4') () 0 () () () 0 0)
29 'print_graph' 'utility' 'print_graph' 1 ((PROCEDURE UNKNOWN-INTENT
MODULE-PROC DECL UNKNOWN SUBROUTINE) (UNKNOWN 0 0 0 UNKNOWN ()) 30 0 (
31) () 0 () () () 0 0)
32 'utility' 'utility' 'utility' 1 ((MODULE UNKNOWN-INTENT UNKNOWN-PROC
UNKNOWN UNKNOWN) (UNKNOWN 0 0 0 UNKNOWN ()) 0 0 () () 0 () () () 0 0)
31 'graph' '' 'graph' 30 ((VARIABLE IN UNKNOWN-PROC UNKNOWN UNKNOWN
DUMMY) (DERIVED 22 0 0 DERIVED ()) 0 0 () () 0 () () () 0 0)
16 'graph' '' 'graph' 15 ((VARIABLE IN UNKNOWN-PROC UNKNOWN UNKNOWN
DUMMY) (DERIVED 22 0 0 DERIVED ()) 0 0 () () 0 () () () 0 0)
17 'ind' '' 'ind' 15 ((VARIABLE IN UNKNOWN-PROC UNKNOWN UNKNOWN DUMMY) (
INTEGER 4 0 0 INTEGER ()) 0 0 () () 0 () () () 0 0)
18 'return_val' '' 'return_val' 15 ((VARIABLE OUT UNKNOWN-PROC UNKNOWN
UNKNOWN DUMMY) (INTEGER 4 0 0 INTEGER ()) 0 0 () () 0 () () () 0 0)
11 'total_num_atoms' '' 'total_num_atoms' 10 ((VARIABLE IN UNKNOWN-PROC
UNKNOWN UNKNOWN DUMMY) (INTEGER 4 0 0 INTEGER ()) 0 0 () () 0 () () () 0
0)
12 'bo_matrix' '' 'bo_matrix' 10 ((VARIABLE IN UNKNOWN-PROC UNKNOWN
UNKNOWN DIMENSION DUMMY) (INTEGER 4 0 0 INTEGER ()) 0 0 () (1 EXPLICIT (
CONSTANT (INTEGER 4 0 0 INTEGER ()) 0 '1') (CONSTANT (INTEGER 4 0 0
INTEGER ()) 0 '144')) 0 () () () 0 0)
13 'col_sum' '' 'col_sum' 10 ((VARIABLE OUT UNKNOWN-PROC UNKNOWN UNKNOWN
DIMENSION DUMMY) (INTEGER 4 0 0 INTEGER ()) 0 0 () (1 EXPLICIT (
CONSTANT (INTEGER 4 0 0 INTEGER ()) 0 '1') (CONSTANT (INTEGER 4 0 0
INTEGER ()) 0 '12')) 0 () () () 0 0)
5 'test_graph' '' 'test_graph' 4 ((VARIABLE IN UNKNOWN-PROC UNKNOWN
UNKNOWN DUMMY) (DERIVED 22 0 0 DERIVED ()) 0 0 () () 0 () () () 0 0)
6 'col_sum' '' 'col_sum' 4 ((VARIABLE IN UNKNOWN-PROC UNKNOWN UNKNOWN
DIMENSION DUMMY) (INTEGER 4 0 0 INTEGER ()) 0 0 () (1 EXPLICIT (
CONSTANT (INTEGER 4 0 0 INTEGER ()) 0 '1') (CONSTANT (INTEGER 4 0 0
INTEGER ()) 0 '12')) 0 () () () 0 0)
7 'return_val' '' 'return_val' 4 ((VARIABLE OUT UNKNOWN-PROC UNKNOWN
UNKNOWN DUMMY) (LOGICAL 4 0 0 LOGICAL ()) 0 0 () () 0 () () () 0 0)
)

('c' 0 2 'check_validity' 0 3 'count_search' 0 8 'get_col_sum' 0 9
'get_element' 0 14 'h' 0 19 'max_num_all_atoms' 0 20 'max_num_elements'
0 21 'molgraph' 0 22 'n' 0 26 'num_chemical_bond' 0 27 'o' 0 28
'print_graph' 0 29 'utility' 0 32)
